…
head(TtlStrm)

## # A tibble: 6 x 8
##   Date       endTime artistName trackName msPlayed Title  Season      `time(s)`
##   <chr>      <chr>   <chr>      <chr>        <dbl> <chr>  <chr>           <dbl>
## 1 2016-12-06 <NA>    <NA>       <NA>            NA Scream " Season 2"        NA
## 2 2016-12-06 <NA>    <NA>       <NA>            NA Scream " Season 2"        NA
## 3 2016-12-07 <NA>    <NA>       <NA>            NA Scream " Season 2"        NA
## 4 2016-12-07 <NA>    <NA>       <NA>            NA Scream " Season 2"        NA
## 5 2016-12-07 <NA>    <NA>       <NA>            NA Scream " Season 2"        NA
## 6 2016-12-07 <NA>    <NA>       <NA>            NA Scream " Season 2"        NA

TtlStrm %>% filter(Date == "2020-09-08") 

## # A tibble: 88 x 8
##    Date    endTime  artistName     trackName    msPlayed Title Season  `time(s)`
##    <chr>   <chr>    <chr>          <chr>           <dbl> <chr> <chr>       <dbl>
##  1 2020-0… 00:05:00 Francisco Tár… Gran vals       61440 Glory  <NA>       61.4 
##  2 2020-0… 00:05:00 Francisco Tár… Gran vals       61440 Dyna… " Seas…     61.4 
##  3 2020-0… 00:05:00 Francisco Tár… Gran vals       61440 Dyna… " Seas…     61.4 
##  4 2020-0… 00:05:00 Francisco Tár… Gran vals       61440 Dyna… " Seas…     61.4 
##  5 2020-0… 01:36:00 The Joe Rogan… #1465 - Tim…  4596212 Glory  <NA>     4596.  
##  6 2020-0… 01:36:00 The Joe Rogan… #1465 - Tim…  4596212 Dyna… " Seas…   4596.  
##  7 2020-0… 01:36:00 The Joe Rogan… #1465 - Tim…  4596212 Dyna… " Seas…   4596.  
##  8 2020-0… 01:36:00 The Joe Rogan… #1465 - Tim…  4596212 Dyna… " Seas…   4596.  
##  9 2020-0… 04:11:00 Modest Mouse   Gravity Rid…     6345 Glory  <NA>        6.34
## 10 2020-0… 04:11:00 Modest Mouse   Gravity Rid…     6345 Dyna… " Seas…      6.34
## # … with 78 more rows

TtlStrm %>% group_by(artistName) %>% count(sort=T)

## # A tibble: 2,613 x 2
## # Groups:   artistName [2,613]
##    artistName              n
##    <chr>               <int>
##  1 Mac DeMarco          3616
##  2 Tyler, The Creator   3050
##  3 Kali Uchis           2570
##  4 Taylor Swift         2302
##  5 Ariana Grande        2003
##  6 <NA>                 1933
##  7 Khruangbin           1705
##  8 Panic! At The Disco  1683
##  9 Fieh                 1653
## 10 The Black Keys       1592
## # … with 2,603 more rows

TtlStrm %>% group_by(Title) %>% count(sort=T)

## # A tibble: 331 x 2
## # Groups:   Title [331]
##    Title                       n
##    <chr>                   <int>
##  1 <NA>                    25104
##  2 New Girl                18336
##  3 Money Heist              5003
##  4 Dynasty                  4491
##  5 DEATH NOTE               4325
##  6 Neon Genesis Evangelion  3917
##  7 Toradora!                3568
##  8 K-On!                    2954
##  9 Dear White People        2878
## 10 Elite                    2494
## # … with 321 more rows

TtlStrm %>% group_by(Date) %>% count(sort=T)

## # A tibble: 754 x 2
## # Groups:   Date [754]
##    Date           n
##    <chr>      <int>
##  1 2020-06-08  3978
##  2 2020-06-15  3045
##  3 2020-06-17  2992
##  4 2020-05-11  2944
##  5 2020-06-12  2904
##  6 2020-08-10  2607
##  7 2020-06-20  2379
##  8 2020-06-14  2035
##  9 2020-06-16  1900
## 10 2020-06-13  1887
## # … with 744 more rows
…
